module beego_tutorial

go 1.15

require github.com/astaxie/beego v1.12.1

require (
	github.com/go-sql-driver/mysql v1.4.1
	github.com/shiena/ansicolor v0.0.0-20151119151921-a422bbe96644 // indirect
	github.com/smartystreets/goconvey v1.6.4
)
